…
**5. Make any necessary replacements in the data such that all NA's appear as "NA".**   

```r
amniota%>%
  replace_with_na_all(condition = ~.x == -999)
```

```
## # A tibble: 21,322 × 36
##    class order     family genus species subspecies common_name female_maturity_d
##    <chr> <chr>     <chr>  <chr> <chr>        <dbl> <chr>                   <dbl>
##  1 Aves  Accipitr… Accip… Acci… albogu…         NA Pied Gosha…               NA 
##  2 Aves  Accipitr… Accip… Acci… badius          NA Shikra                   363.
##  3 Aves  Accipitr… Accip… Acci… bicolor         NA Bicolored …               NA 
##  4 Aves  Accipitr… Accip… Acci… brachy…         NA New Britai…               NA 
##  5 Aves  Accipitr… Accip… Acci… brevip…         NA Levant Spa…              363.
##  6 Aves  Accipitr… Accip… Acci… castan…         NA Chestnut-f…               NA 
##  7 Aves  Accipitr… Accip… Acci… chilen…         NA Chilean Ha…               NA 
##  8 Aves  Accipitr… Accip… Acci… chiono…         NA White-brea…              548.
##  9 Aves  Accipitr… Accip… Acci… cirroc…         NA Collared S…               NA 
## 10 Aves  Accipitr… Accip… Acci… cooper…         NA Cooper's H…              730 
## # ℹ 21,312 more rows
## # ℹ 28 more variables: litter_or_clutch_size_n <dbl>,
## #   litters_or_clutches_per_y <dbl>, adult_body_mass_g <dbl>,
## #   maximum_longevity_y <dbl>, gestation_d <dbl>, weaning_d <dbl>,
## #   birth_or_hatching_weight_g <dbl>, weaning_weight_g <dbl>, egg_mass_g <dbl>,
## #   incubation_d <dbl>, fledging_age_d <dbl>, longevity_y <dbl>,
## #   male_maturity_d <dbl>, inter_litter_or_interbirth_interval_y <dbl>, …
```


```r
amphibio%>%
  replace_with_na_all(condition = ~.x == -999)
```

```
## # A tibble: 6,776 × 38
##    id    Order Family Genus Species   Fos   Ter   Aqu   Arb Leaves Flowers Seeds
##    <chr> <chr> <chr>  <chr> <chr>   <dbl> <dbl> <dbl> <dbl>  <dbl>   <dbl> <dbl>
##  1 Anf0… Anura Allop… Allo… Alloph…    NA     1     1     1     NA      NA    NA
##  2 Anf0… Anura Alyti… Alyt… Alytes…    NA     1     1     1     NA      NA    NA
##  3 Anf0… Anura Alyti… Alyt… Alytes…    NA     1     1     1     NA      NA    NA
##  4 Anf0… Anura Alyti… Alyt… Alytes…    NA     1     1     1     NA      NA    NA
##  5 Anf0… Anura Alyti… Alyt… Alytes…    NA     1    NA     1     NA      NA    NA
##  6 Anf0… Anura Alyti… Alyt… Alytes…     1     1     1     1     NA      NA    NA
##  7 Anf0… Anura Alyti… Disc… Discog…     1     1     1    NA     NA      NA    NA
##  8 Anf0… Anura Alyti… Disc… Discog…     1     1     1    NA     NA      NA    NA
##  9 Anf0… Anura Alyti… Disc… Discog…     1     1     1    NA     NA      NA    NA
## 10 Anf0… Anura Alyti… Disc… Discog…     1     1     1    NA     NA      NA    NA
## # ℹ 6,766 more rows
## # ℹ 26 more variables: Fruits <lgl>, Arthro <dbl>, Vert <dbl>, Diu <dbl>,
## #   Noc <dbl>, Crepu <dbl>, Wet_warm <dbl>, Wet_cold <dbl>, Dry_warm <dbl>,
## #   Dry_cold <dbl>, Body_mass_g <dbl>, Age_at_maturity_min_y <dbl>,
## #   Age_at_maturity_max_y <dbl>, Body_size_mm <dbl>,
## #   Size_at_maturity_min_mm <dbl>, Size_at_maturity_max_mm <dbl>,
## #   Longevity_max_y <dbl>, Litter_size_min_n <dbl>, Litter_size_max_n <dbl>, …
```

**6. Use the package `naniar` to produce a summary, including percentages, of missing data in each column for the `amniota` data.**  

```r
miss_var_summary(amniota)
```

```
## # A tibble: 36 × 3
##    variable                  n_miss pct_miss
##    <chr>                      <int>    <dbl>
##  1 class                          0        0
##  2 order                          0        0
##  3 family                         0        0
##  4 genus                          0        0
##  5 species                        0        0
##  6 subspecies                     0        0
##  7 common_name                    0        0
##  8 female_maturity_d              0        0
##  9 litter_or_clutch_size_n        0        0
## 10 litters_or_clutches_per_y      0        0
## # ℹ 26 more rows
```

**7. Use the package `naniar` to produce a summary, including percentages, of missing data in each column for the `amphibio` data.**

```r
miss_var_summary(amphibio)
```

```
## # A tibble: 38 × 3
##    variable n_miss pct_miss
##    <chr>     <int>    <dbl>
##  1 Fruits     6774    100. 
##  2 Flowers    6772     99.9
##  3 Seeds      6772     99.9
##  4 Leaves     6752     99.6
##  5 Dry_cold   6735     99.4
##  6 Vert       6657     98.2
##  7 OBS        6651     98.2
##  8 Wet_cold   6625     97.8
##  9 Crepu      6608     97.5
## 10 Dry_warm   6572     97.0
## # ℹ 28 more rows
```
…
