…
2. Which cities in California have the highest number of colleges?
ANS: LA

```r
colleges%>%
  count(CITY)%>%
  arrange(desc(n))
```

```
## # A tibble: 161 × 2
##    CITY              n
##    <chr>         <int>
##  1 Los Angeles      24
##  2 San Diego        18
##  3 San Francisco    15
##  4 Sacramento       10
##  5 Berkeley          9
##  6 Oakland           9
##  7 Claremont         7
##  8 Pasadena          6
##  9 Fresno            5
## 10 Irvine            5
## # ℹ 151 more rows
```
…
4. The column `COSTT4_A` is the annual cost of each institution. Which city has the highest average cost? Where is it located?

ANS: Claremont

```r
colleges%>%
  group_by(CITY)%>%
  summarise(mean_inst = mean(COSTT4_A , na.rm = T))%>%
  arrange(desc(mean_inst))
```

```
## # A tibble: 161 × 2
##    CITY                mean_inst
##    <chr>                   <dbl>
##  1 Claremont               66498
##  2 Malibu                  66152
##  3 Valencia                64686
##  4 Orange                  64501
##  5 Redlands                61542
##  6 Moraga                  61095
##  7 Atherton                56035
##  8 Thousand Oaks           54373
##  9 Rancho Palos Verdes     50758
## 10 La Verne                50603
## # ℹ 151 more rows
```
…
6. The column `ADM_RATE` is the admissions rate by college and `C150_4_POOLED` is the four-year completion rate. Use a scatterplot to show the relationship between these two variables. What do you think this means?


```r
colleges%>%
  select(COSTT4_A ,ADM_RATE, C150_4_POOLED)
```

```
## # A tibble: 341 × 3
##    COSTT4_A ADM_RATE C150_4_POOLED
##       <dbl>    <dbl>         <dbl>
##  1     7956       NA        NA    
##  2     8109       NA        NA    
##  3     8278       NA        NA    
##  4     8407       NA        NA    
##  5     8516       NA        NA    
##  6     8577       NA        NA    
##  7     8580       NA         0.233
##  8     9181       NA        NA    
##  9     9281       NA        NA    
## 10     9370       NA        NA    
## # ℹ 331 more rows
```
…
