…
2. How many genera and species are represented in the data? What are the total number of observations? Which species is most/ least frequently sampled in the study?


```r
deserts%>%
  group_by(species, genus)%>%
  count(species, sort = T)
```

```
## # A tibble: 48 × 3
## # Groups:   species, genus [48]
##    species      genus               n
##    <chr>        <chr>           <int>
##  1 merriami     Dipodomys       10596
##  2 penicillatus Chaetodipus      3123
##  3 ordii        Dipodomys        3027
##  4 baileyi      Chaetodipus      2891
##  5 megalotis    Reithrodontomys  2609
##  6 spectabilis  Dipodomys        2504
##  7 torridus     Onychomys        2249
##  8 flavus       Perognathus      1597
##  9 eremicus     Peromyscus       1299
## 10 albigula     Neotoma          1252
## # ℹ 38 more rows
```
…
9. Which two species have, on average, the highest weight? Once you have identified them, make a new column that is a ratio of `weight` to `hindfoot_length`. Make a plot that shows the range of this new ratio and fill by sex.
ANS: Highest weight is of species albigula and spectabilis.

```r
deserts%>%
  group_by(species)%>%
  summarise(mean_highest_w = mean(weight, na.rm = T))%>%
  arrange(desc(mean_highest_w))
```

```
## # A tibble: 40 × 2
##    species      mean_highest_w
##    <chr>                 <dbl>
##  1 albigula              159. 
##  2 spectabilis           120. 
##  3 spilosoma              93.5
##  4 hispidus               65.6
##  5 fulviventer            58.9
##  6 ochrognathus           55.4
##  7 ordii                  48.9
##  8 merriami               43.2
##  9 baileyi                31.7
## 10 leucogaster            31.6
## # ℹ 30 more rows
```
…
