…
**7. Which countries have had the largest population growth since 1952?**


```r
gapminder%>%
  filter(year == "1952" | year == "2007")%>%
  group_by(country, year)%>%
  summarise(largest_pop = mean(pop), .groups = 'keep')%>%
  top_n(5, largest_pop)%>%
  arrange(desc(largest_pop))%>%
  pivot_wider(names_from = year, values_from = largest_pop)
```

```
## # A tibble: 142 × 3
## # Groups:   country [142]
##    country           `2007`    `1952`
##    <fct>              <dbl>     <dbl>
##  1 China         1318683096 556263527
##  2 India         1110396331 372000000
##  3 United States  301139947 157553000
##  4 Indonesia      223547000  82052000
##  5 Brazil         190010647  56602560
##  6 Pakistan       169270617  41346560
##  7 Bangladesh     150448339  46886859
##  8 Nigeria        135031164  33119096
##  9 Japan          127467972  86459025
## 10 Mexico         108700891  30144317
## # ℹ 132 more rows
```
…
